{
    "project": {
        "name": "The INTSTITUTION OPEID LOOKUP API",
        "description": "The official documentation for the ACME APIs",
        "version": "0.0.1",
        "url": "http://localhost:8080/adv-topics-final/dist/"
    },
    "files": {
        "bower_components\\jquery\\dist\\jquery.js": {
            "name": "bower_components\\jquery\\dist\\jquery.js",
            "modules": {},
            "classes": {},
            "fors": {},
            "namespaces": {}
        },
        "bower_components\\jquery\\dist\\jquery.slim.js": {
            "name": "bower_components\\jquery\\dist\\jquery.slim.js",
            "modules": {},
            "classes": {},
            "fors": {},
            "namespaces": {}
        },
        "bower_components\\jquery\\external\\sizzle\\dist\\sizzle.js": {
            "name": "bower_components\\jquery\\external\\sizzle\\dist\\sizzle.js",
            "modules": {},
            "classes": {},
            "fors": {},
            "namespaces": {}
        },
        "bower_components\\jquery\\src\\ajax\\load.js": {
            "name": "bower_components\\jquery\\src\\ajax\\load.js",
            "modules": {},
            "classes": {},
            "fors": {},
            "namespaces": {}
        },
        "bower_components\\jquery\\src\\core\\ready-no-deferred.js": {
            "name": "bower_components\\jquery\\src\\core\\ready-no-deferred.js",
            "modules": {},
            "classes": {},
            "fors": {},
            "namespaces": {}
        },
        "bower_components\\jquery\\src\\data\\var\\acceptData.js": {
            "name": "bower_components\\jquery\\src\\data\\var\\acceptData.js",
            "modules": {},
            "classes": {},
            "fors": {},
            "namespaces": {}
        },
        "src\\js\\modules\\institution-ajax-module\\acme\\ajax.js": {
            "name": "src\\js\\modules\\institution-ajax-module\\acme\\ajax.js",
            "modules": {},
            "classes": {},
            "fors": {},
            "namespaces": {}
        },
        "src\\js\\modules\\institution-ajax-module\\acme\\institution-details.js": {
            "name": "src\\js\\modules\\institution-ajax-module\\acme\\institution-details.js",
            "modules": {
                "Acme": 1
            },
            "classes": {
                "Institution Details": 1
            },
            "fors": {},
            "namespaces": {}
        },
        "src\\js\\modules\\institution-ajax-module\\acme\\institution-list-original.js": {
            "name": "src\\js\\modules\\institution-ajax-module\\acme\\institution-list-original.js",
            "modules": {},
            "classes": {
                "institutionList": 1
            },
            "fors": {},
            "namespaces": {}
        },
        "src\\js\\modules\\institution-ajax-module\\acme\\institutionDataAccess-ajax.js": {
            "name": "src\\js\\modules\\institution-ajax-module\\acme\\institutionDataAccess-ajax.js",
            "modules": {
                "Amce": 1
            },
            "classes": {
                "Institution Data Access": 1,
                "Institution Data Access\nThis class allows the user to search for and instituion by name as choosen by impimentation of bootstrap3 typeahead plugin.": 1,
                "institutionDataAccess": 1
            },
            "fors": {},
            "namespaces": {}
        },
        "src\\js\\modules\\institution-ajax-module\\jquery.js": {
            "name": "src\\js\\modules\\institution-ajax-module\\jquery.js",
            "modules": {},
            "classes": {},
            "fors": {},
            "namespaces": {}
        },
        "src\\js\\main.js": {
            "name": "src\\js\\main.js",
            "modules": {},
            "classes": {},
            "fors": {},
            "namespaces": {}
        }
    },
    "modules": {
        "Acme": {
            "name": "Acme",
            "submodules": {},
            "elements": {},
            "classes": {
                "Institution Details": 1,
                "institutionList": 1
            },
            "fors": {},
            "namespaces": {},
            "tag": "module",
            "file": "src\\js\\modules\\institution-ajax-module\\acme\\institution-list-original.js",
            "line": 1,
            "itemtype": "main"
        },
        "Amce": {
            "name": "Amce",
            "submodules": {},
            "elements": {},
            "classes": {
                "Institution Data Access": 1,
                "Institution Data Access\nThis class allows the user to search for and instituion by name as choosen by impimentation of bootstrap3 typeahead plugin.": 1,
                "institutionDataAccess": 1
            },
            "fors": {},
            "namespaces": {},
            "tag": "module",
            "file": "src\\js\\modules\\institution-ajax-module\\acme\\institutionDataAccess-ajax.js",
            "line": 23
        }
    },
    "classes": {
        "Institution Details": {
            "name": "Institution Details",
            "shortname": "Institution Details",
            "classitems": [],
            "plugins": [],
            "extensions": [],
            "plugin_for": [],
            "extension_for": [],
            "module": "Acme",
            "namespace": "",
            "file": "src\\js\\modules\\institution-ajax-module\\acme\\institution-details.js",
            "line": 1
        },
        "institutionList": {
            "name": "institutionList",
            "shortname": "institutionList",
            "classitems": [],
            "plugins": [],
            "extensions": [],
            "plugin_for": [],
            "extension_for": [],
            "module": "Acme",
            "namespace": "",
            "file": "src\\js\\modules\\institution-ajax-module\\acme\\institution-list-original.js",
            "line": 1
        },
        "Institution Data Access": {
            "name": "Institution Data Access",
            "shortname": "Institution Data Access",
            "classitems": [],
            "plugins": [],
            "extensions": [],
            "plugin_for": [],
            "extension_for": [],
            "module": "Amce",
            "namespace": "",
            "file": "src\\js\\modules\\institution-ajax-module\\acme\\institutionDataAccess-ajax.js",
            "line": 1
        },
        "Institution Data Access\nThis class allows the user to search for and instituion by name as choosen by impimentation of bootstrap3 typeahead plugin.": {
            "name": "Institution Data Access\nThis class allows the user to search for and instituion by name as choosen by impimentation of bootstrap3 typeahead plugin.",
            "shortname": "Institution Data Access\nThis class allows the user to search for and instituion by name as choosen by impimentation of bootstrap3 typeahead plugin.",
            "classitems": [],
            "plugins": [],
            "extensions": [],
            "plugin_for": [],
            "extension_for": [],
            "module": "Amce",
            "namespace": "",
            "file": "src\\js\\modules\\institution-ajax-module\\acme\\institutionDataAccess-ajax.js",
            "line": 18
        },
        "institutionDataAccess": {
            "name": "institutionDataAccess",
            "shortname": "institutionDataAccess",
            "classitems": [],
            "plugins": [],
            "extensions": [],
            "plugin_for": [],
            "extension_for": [],
            "module": "Amce",
            "namespace": "",
            "file": "src\\js\\modules\\institution-ajax-module\\acme\\institutionDataAccess-ajax.js",
            "line": 23,
            "description": "Description",
            "itemtype": "method",
            "return": {
                "description": "ObjectExpression"
            }
        }
    },
    "elements": {},
    "classitems": [
        {
            "file": "bower_components\\jquery\\dist\\jquery.js",
            "line": 887,
            "description": "Create key-value caches of limited size",
            "return": {
                "description": "Returns the Object data after storing it on itself with\n\tproperty name the (space-suffixed) string and (if the cache is larger than Expr.cacheLength)\n\tdeleting the oldest entry",
                "type": "Function(string, object)"
            },
            "class": "Institution Details"
        },
        {
            "file": "bower_components\\jquery\\dist\\jquery.js",
            "line": 907,
            "description": "Mark a function for special use by Sizzle",
            "params": [
                {
                    "name": "fn",
                    "description": "The function to mark",
                    "type": "Function"
                }
            ],
            "class": "Institution Details"
        },
        {
            "file": "bower_components\\jquery\\dist\\jquery.js",
            "line": 916,
            "description": "Support testing using an element",
            "params": [
                {
                    "name": "fn",
                    "description": "Passed the created element and returns a boolean result",
                    "type": "Function"
                }
            ],
            "class": "Institution Details"
        },
        {
            "file": "bower_components\\jquery\\dist\\jquery.js",
            "line": 937,
            "description": "Adds the same handler for all of the specified attrs",
            "params": [
                {
                    "name": "attrs",
                    "description": "Pipe-separated list of attributes",
                    "type": "String"
                },
                {
                    "name": "handler",
                    "description": "The method that will be applied",
                    "type": "Function"
                }
            ],
            "class": "Institution Details"
        },
        {
            "file": "bower_components\\jquery\\dist\\jquery.js",
            "line": 951,
            "description": "Checks document order of two siblings",
            "params": [
                {
                    "name": "a",
                    "description": "",
                    "type": "Element"
                },
                {
                    "name": "b",
                    "description": "",
                    "type": "Element"
                }
            ],
            "return": {
                "description": "Returns less than 0 if a precedes b, greater than 0 if a follows b",
                "type": "Number"
            },
            "class": "Institution Details"
        },
        {
            "file": "bower_components\\jquery\\dist\\jquery.js",
            "line": 979,
            "description": "Returns a function to use in pseudos for input types",
            "params": [
                {
                    "name": "type",
                    "description": "",
                    "type": "String"
                }
            ],
            "class": "Institution Details"
        },
        {
            "file": "bower_components\\jquery\\dist\\jquery.js",
            "line": 990,
            "description": "Returns a function to use in pseudos for buttons",
            "params": [
                {
                    "name": "type",
                    "description": "",
                    "type": "String"
                }
            ],
            "class": "Institution Details"
        },
        {
            "file": "bower_components\\jquery\\dist\\jquery.js",
            "line": 1001,
            "description": "Returns a function to use in pseudos for :enabled/:disabled",
            "params": [
                {
                    "name": "disabled",
                    "description": "true for :disabled; false for :enabled",
                    "type": "Boolean"
                }
            ],
            "class": "Institution Details"
        },
        {
            "file": "bower_components\\jquery\\dist\\jquery.js",
            "line": 1057,
            "description": "Returns a function to use in pseudos for positionals",
            "params": [
                {
                    "name": "fn",
                    "description": "",
                    "type": "Function"
                }
            ],
            "class": "Institution Details"
        },
        {
            "file": "bower_components\\jquery\\dist\\jquery.js",
            "line": 1079,
            "description": "Checks a node for validity as a Sizzle context",
            "params": [
                {
                    "name": "context",
                    "description": "",
                    "type": "Element|Object="
                }
            ],
            "return": {
                "description": "The input node if acceptable, otherwise a falsy value",
                "type": "Element|Object|Boolean"
            },
            "class": "Institution Details"
        },
        {
            "file": "bower_components\\jquery\\dist\\jquery.js",
            "line": 1091,
            "description": "Detects XML nodes",
            "params": [
                {
                    "name": "elem",
                    "description": "An element or a document",
                    "type": "Element|Object"
                }
            ],
            "return": {
                "description": "True iff elem is a non-HTML XML node",
                "type": "Boolean"
            },
            "class": "Institution Details"
        },
        {
            "file": "bower_components\\jquery\\dist\\jquery.js",
            "line": 1103,
            "description": "Sets document-related variables once based on the current document",
            "params": [
                {
                    "name": "doc",
                    "description": "An element or document object to use to set the document",
                    "type": "Element|Object",
                    "optional": true
                }
            ],
            "return": {
                "description": "Returns the current document",
                "type": "Object"
            },
            "class": "Institution Details"
        },
        {
            "file": "bower_components\\jquery\\dist\\jquery.js",
            "line": 1583,
            "description": "Document sorting and removing duplicates",
            "params": [
                {
                    "name": "results",
                    "description": "",
                    "type": "ArrayLike"
                }
            ],
            "class": "Institution Details"
        },
        {
            "file": "bower_components\\jquery\\dist\\jquery.js",
            "line": 1616,
            "description": "Utility function for retrieving the text value of an array of DOM nodes",
            "params": [
                {
                    "name": "elem",
                    "description": "",
                    "type": "Array|Element"
                }
            ],
            "class": "Institution Details"
        },
        {
            "file": "bower_components\\jquery\\dist\\jquery.js",
            "line": 2647,
            "description": "A low-level selection function that works with Sizzle's compiled\n selector functions",
            "params": [
                {
                    "name": "selector",
                    "description": "A selector or a pre-compiled\n selector function built with Sizzle.compile",
                    "type": "String|Function"
                },
                {
                    "name": "context",
                    "description": "",
                    "type": "Element"
                },
                {
                    "name": "results",
                    "description": "",
                    "type": "Array",
                    "optional": true
                },
                {
                    "name": "seed",
                    "description": "A set of elements to match against",
                    "type": "Array",
                    "optional": true
                }
            ],
            "class": "Institution Details"
        },
        {
            "file": "bower_components\\jquery\\dist\\jquery.js",
            "line": 9817,
            "description": "Load a url into a page",
            "class": "Institution Details"
        },
        {
            "file": "bower_components\\jquery\\dist\\jquery.slim.js",
            "line": 887,
            "description": "Create key-value caches of limited size",
            "return": {
                "description": "Returns the Object data after storing it on itself with\n\tproperty name the (space-suffixed) string and (if the cache is larger than Expr.cacheLength)\n\tdeleting the oldest entry",
                "type": "Function(string, object)"
            },
            "class": "Institution Details"
        },
        {
            "file": "bower_components\\jquery\\dist\\jquery.slim.js",
            "line": 907,
            "description": "Mark a function for special use by Sizzle",
            "params": [
                {
                    "name": "fn",
                    "description": "The function to mark",
                    "type": "Function"
                }
            ],
            "class": "Institution Details"
        },
        {
            "file": "bower_components\\jquery\\dist\\jquery.slim.js",
            "line": 916,
            "description": "Support testing using an element",
            "params": [
                {
                    "name": "fn",
                    "description": "Passed the created element and returns a boolean result",
                    "type": "Function"
                }
            ],
            "class": "Institution Details"
        },
        {
            "file": "bower_components\\jquery\\dist\\jquery.slim.js",
            "line": 937,
            "description": "Adds the same handler for all of the specified attrs",
            "params": [
                {
                    "name": "attrs",
                    "description": "Pipe-separated list of attributes",
                    "type": "String"
                },
                {
                    "name": "handler",
                    "description": "The method that will be applied",
                    "type": "Function"
                }
            ],
            "class": "Institution Details"
        },
        {
            "file": "bower_components\\jquery\\dist\\jquery.slim.js",
            "line": 951,
            "description": "Checks document order of two siblings",
            "params": [
                {
                    "name": "a",
                    "description": "",
                    "type": "Element"
                },
                {
                    "name": "b",
                    "description": "",
                    "type": "Element"
                }
            ],
            "return": {
                "description": "Returns less than 0 if a precedes b, greater than 0 if a follows b",
                "type": "Number"
            },
            "class": "Institution Details"
        },
        {
            "file": "bower_components\\jquery\\dist\\jquery.slim.js",
            "line": 979,
            "description": "Returns a function to use in pseudos for input types",
            "params": [
                {
                    "name": "type",
                    "description": "",
                    "type": "String"
                }
            ],
            "class": "Institution Details"
        },
        {
            "file": "bower_components\\jquery\\dist\\jquery.slim.js",
            "line": 990,
            "description": "Returns a function to use in pseudos for buttons",
            "params": [
                {
                    "name": "type",
                    "description": "",
                    "type": "String"
                }
            ],
            "class": "Institution Details"
        },
        {
            "file": "bower_components\\jquery\\dist\\jquery.slim.js",
            "line": 1001,
            "description": "Returns a function to use in pseudos for :enabled/:disabled",
            "params": [
                {
                    "name": "disabled",
                    "description": "true for :disabled; false for :enabled",
                    "type": "Boolean"
                }
            ],
            "class": "Institution Details"
        },
        {
            "file": "bower_components\\jquery\\dist\\jquery.slim.js",
            "line": 1057,
            "description": "Returns a function to use in pseudos for positionals",
            "params": [
                {
                    "name": "fn",
                    "description": "",
                    "type": "Function"
                }
            ],
            "class": "Institution Details"
        },
        {
            "file": "bower_components\\jquery\\dist\\jquery.slim.js",
            "line": 1079,
            "description": "Checks a node for validity as a Sizzle context",
            "params": [
                {
                    "name": "context",
                    "description": "",
                    "type": "Element|Object="
                }
            ],
            "return": {
                "description": "The input node if acceptable, otherwise a falsy value",
                "type": "Element|Object|Boolean"
            },
            "class": "Institution Details"
        },
        {
            "file": "bower_components\\jquery\\dist\\jquery.slim.js",
            "line": 1091,
            "description": "Detects XML nodes",
            "params": [
                {
                    "name": "elem",
                    "description": "An element or a document",
                    "type": "Element|Object"
                }
            ],
            "return": {
                "description": "True iff elem is a non-HTML XML node",
                "type": "Boolean"
            },
            "class": "Institution Details"
        },
        {
            "file": "bower_components\\jquery\\dist\\jquery.slim.js",
            "line": 1103,
            "description": "Sets document-related variables once based on the current document",
            "params": [
                {
                    "name": "doc",
                    "description": "An element or document object to use to set the document",
                    "type": "Element|Object",
                    "optional": true
                }
            ],
            "return": {
                "description": "Returns the current document",
                "type": "Object"
            },
            "class": "Institution Details"
        },
        {
            "file": "bower_components\\jquery\\dist\\jquery.slim.js",
            "line": 1583,
            "description": "Document sorting and removing duplicates",
            "params": [
                {
                    "name": "results",
                    "description": "",
                    "type": "ArrayLike"
                }
            ],
            "class": "Institution Details"
        },
        {
            "file": "bower_components\\jquery\\dist\\jquery.slim.js",
            "line": 1616,
            "description": "Utility function for retrieving the text value of an array of DOM nodes",
            "params": [
                {
                    "name": "elem",
                    "description": "",
                    "type": "Array|Element"
                }
            ],
            "class": "Institution Details"
        },
        {
            "file": "bower_components\\jquery\\dist\\jquery.slim.js",
            "line": 2647,
            "description": "A low-level selection function that works with Sizzle's compiled\n selector functions",
            "params": [
                {
                    "name": "selector",
                    "description": "A selector or a pre-compiled\n selector function built with Sizzle.compile",
                    "type": "String|Function"
                },
                {
                    "name": "context",
                    "description": "",
                    "type": "Element"
                },
                {
                    "name": "results",
                    "description": "",
                    "type": "Array",
                    "optional": true
                },
                {
                    "name": "seed",
                    "description": "A set of elements to match against",
                    "type": "Array",
                    "optional": true
                }
            ],
            "class": "Institution Details"
        },
        {
            "file": "bower_components\\jquery\\external\\sizzle\\dist\\sizzle.js",
            "line": 349,
            "description": "Create key-value caches of limited size",
            "return": {
                "description": "Returns the Object data after storing it on itself with\n\tproperty name the (space-suffixed) string and (if the cache is larger than Expr.cacheLength)\n\tdeleting the oldest entry",
                "type": "Function(string, object)"
            },
            "class": "Institution Details"
        },
        {
            "file": "bower_components\\jquery\\external\\sizzle\\dist\\sizzle.js",
            "line": 369,
            "description": "Mark a function for special use by Sizzle",
            "params": [
                {
                    "name": "fn",
                    "description": "The function to mark",
                    "type": "Function"
                }
            ],
            "class": "Institution Details"
        },
        {
            "file": "bower_components\\jquery\\external\\sizzle\\dist\\sizzle.js",
            "line": 378,
            "description": "Support testing using an element",
            "params": [
                {
                    "name": "fn",
                    "description": "Passed the created element and returns a boolean result",
                    "type": "Function"
                }
            ],
            "class": "Institution Details"
        },
        {
            "file": "bower_components\\jquery\\external\\sizzle\\dist\\sizzle.js",
            "line": 399,
            "description": "Adds the same handler for all of the specified attrs",
            "params": [
                {
                    "name": "attrs",
                    "description": "Pipe-separated list of attributes",
                    "type": "String"
                },
                {
                    "name": "handler",
                    "description": "The method that will be applied",
                    "type": "Function"
                }
            ],
            "class": "Institution Details"
        },
        {
            "file": "bower_components\\jquery\\external\\sizzle\\dist\\sizzle.js",
            "line": 413,
            "description": "Checks document order of two siblings",
            "params": [
                {
                    "name": "a",
                    "description": "",
                    "type": "Element"
                },
                {
                    "name": "b",
                    "description": "",
                    "type": "Element"
                }
            ],
            "return": {
                "description": "Returns less than 0 if a precedes b, greater than 0 if a follows b",
                "type": "Number"
            },
            "class": "Institution Details"
        },
        {
            "file": "bower_components\\jquery\\external\\sizzle\\dist\\sizzle.js",
            "line": 441,
            "description": "Returns a function to use in pseudos for input types",
            "params": [
                {
                    "name": "type",
                    "description": "",
                    "type": "String"
                }
            ],
            "class": "Institution Details"
        },
        {
            "file": "bower_components\\jquery\\external\\sizzle\\dist\\sizzle.js",
            "line": 452,
            "description": "Returns a function to use in pseudos for buttons",
            "params": [
                {
                    "name": "type",
                    "description": "",
                    "type": "String"
                }
            ],
            "class": "Institution Details"
        },
        {
            "file": "bower_components\\jquery\\external\\sizzle\\dist\\sizzle.js",
            "line": 463,
            "description": "Returns a function to use in pseudos for :enabled/:disabled",
            "params": [
                {
                    "name": "disabled",
                    "description": "true for :disabled; false for :enabled",
                    "type": "Boolean"
                }
            ],
            "class": "Institution Details"
        },
        {
            "file": "bower_components\\jquery\\external\\sizzle\\dist\\sizzle.js",
            "line": 519,
            "description": "Returns a function to use in pseudos for positionals",
            "params": [
                {
                    "name": "fn",
                    "description": "",
                    "type": "Function"
                }
            ],
            "class": "Institution Details"
        },
        {
            "file": "bower_components\\jquery\\external\\sizzle\\dist\\sizzle.js",
            "line": 541,
            "description": "Checks a node for validity as a Sizzle context",
            "params": [
                {
                    "name": "context",
                    "description": "",
                    "type": "Element|Object="
                }
            ],
            "return": {
                "description": "The input node if acceptable, otherwise a falsy value",
                "type": "Element|Object|Boolean"
            },
            "class": "Institution Details"
        },
        {
            "file": "bower_components\\jquery\\external\\sizzle\\dist\\sizzle.js",
            "line": 553,
            "description": "Detects XML nodes",
            "params": [
                {
                    "name": "elem",
                    "description": "An element or a document",
                    "type": "Element|Object"
                }
            ],
            "return": {
                "description": "True iff elem is a non-HTML XML node",
                "type": "Boolean"
            },
            "class": "Institution Details"
        },
        {
            "file": "bower_components\\jquery\\external\\sizzle\\dist\\sizzle.js",
            "line": 565,
            "description": "Sets document-related variables once based on the current document",
            "params": [
                {
                    "name": "doc",
                    "description": "An element or document object to use to set the document",
                    "type": "Element|Object",
                    "optional": true
                }
            ],
            "return": {
                "description": "Returns the current document",
                "type": "Object"
            },
            "class": "Institution Details"
        },
        {
            "file": "bower_components\\jquery\\external\\sizzle\\dist\\sizzle.js",
            "line": 1045,
            "description": "Document sorting and removing duplicates",
            "params": [
                {
                    "name": "results",
                    "description": "",
                    "type": "ArrayLike"
                }
            ],
            "class": "Institution Details"
        },
        {
            "file": "bower_components\\jquery\\external\\sizzle\\dist\\sizzle.js",
            "line": 1078,
            "description": "Utility function for retrieving the text value of an array of DOM nodes",
            "params": [
                {
                    "name": "elem",
                    "description": "",
                    "type": "Array|Element"
                }
            ],
            "class": "Institution Details"
        },
        {
            "file": "bower_components\\jquery\\external\\sizzle\\dist\\sizzle.js",
            "line": 2109,
            "description": "A low-level selection function that works with Sizzle's compiled\n selector functions",
            "params": [
                {
                    "name": "selector",
                    "description": "A selector or a pre-compiled\n selector function built with Sizzle.compile",
                    "type": "String|Function"
                },
                {
                    "name": "context",
                    "description": "",
                    "type": "Element"
                },
                {
                    "name": "results",
                    "description": "",
                    "type": "Array",
                    "optional": true
                },
                {
                    "name": "seed",
                    "description": "A set of elements to match against",
                    "type": "Array",
                    "optional": true
                }
            ],
            "class": "Institution Details"
        },
        {
            "file": "bower_components\\jquery\\src\\ajax\\load.js",
            "line": 13,
            "description": "Load a url into a page",
            "class": "Institution Details"
        },
        {
            "file": "bower_components\\jquery\\src\\core\\ready-no-deferred.js",
            "line": 68,
            "description": "The ready event handler and self cleanup method",
            "class": "Institution Details"
        },
        {
            "file": "bower_components\\jquery\\src\\data\\var\\acceptData.js",
            "line": 5,
            "description": "Determines whether an object can have data",
            "class": "Institution Details"
        },
        {
            "file": "src\\js\\modules\\institution-ajax-module\\acme\\ajax.js",
            "line": 8,
            "itemtype": "method",
            "name": "ajax",
            "class": "Institution Details",
            "module": "Acme"
        },
        {
            "file": "src\\js\\modules\\institution-ajax-module\\acme\\ajax.js",
            "line": 12,
            "description": "Description",
            "itemtype": "method",
            "name": "send",
            "params": [
                {
                    "name": "options",
                    "description": ""
                }
            ],
            "return": {
                "description": ""
            },
            "class": "Institution Details",
            "module": "Acme"
        },
        {
            "file": "src\\js\\modules\\institution-ajax-module\\acme\\ajax.js",
            "line": 43,
            "description": "Description",
            "itemtype": "method",
            "name": "error",
            "params": [
                {
                    "name": "errMsg",
                    "description": ""
                }
            ],
            "return": {
                "description": ""
            },
            "class": "Institution Details",
            "module": "Acme"
        },
        {
            "file": "src\\js\\modules\\institution-ajax-module\\acme\\ajax.js",
            "line": 55,
            "description": "Description",
            "itemtype": "method",
            "name": "ln",
            "return": {
                "description": "MemberExpression"
            },
            "class": "Institution Details",
            "module": "Acme"
        },
        {
            "file": "src\\js\\modules\\institution-ajax-module\\acme\\institution-details.js",
            "line": 9,
            "class": "Institution Details",
            "module": "Acme"
        },
        {
            "file": "src\\js\\modules\\institution-ajax-module\\acme\\institution-details.js",
            "line": 14,
            "description": "Description",
            "itemtype": "method",
            "name": "init",
            "params": [
                {
                    "name": "options.mapDiv",
                    "description": "name of the div where inst map will be placed.",
                    "type": "String"
                }
            ],
            "return": {
                "description": "ObjectExpression"
            },
            "class": "Institution Details",
            "module": "Acme"
        },
        {
            "file": "src\\js\\modules\\institution-ajax-module\\acme\\institution-details.js",
            "line": 35,
            "description": "The destroyUI deletes and resets the div that renders the institution OPEID",
            "itemtype": "method",
            "name": "destroyUI",
            "return": {
                "description": ""
            },
            "class": "Institution Details",
            "module": "Acme"
        },
        {
            "file": "src\\js\\modules\\institution-ajax-module\\acme\\institution-details.js",
            "line": 51,
            "description": "The createUI method is used to render the user input",
            "itemtype": "method",
            "name": "createUI",
            "return": {
                "description": ""
            },
            "class": "Institution Details",
            "module": "Acme"
        },
        {
            "file": "src\\js\\modules\\institution-ajax-module\\acme\\institution-details.js",
            "line": 150,
            "description": "The initMap function in the callback that is utilized by the Google Maps API",
            "itemtype": "method",
            "name": "initMap",
            "return": {
                "description": ""
            },
            "class": "Institution Details",
            "module": "Acme"
        },
        {
            "file": "src\\js\\modules\\institution-ajax-module\\acme\\institution-details.js",
            "line": 242,
            "description": "Description",
            "itemtype": "method",
            "name": "setInstitution",
            "params": [
                {
                    "name": "newInstitution",
                    "description": ""
                }
            ],
            "return": {
                "description": ""
            },
            "class": "Institution Details",
            "module": "Acme"
        },
        {
            "file": "src\\js\\modules\\institution-ajax-module\\acme\\institution-list-original.js",
            "line": 7,
            "class": "institutionList",
            "module": "Acme"
        },
        {
            "file": "src\\js\\modules\\institution-ajax-module\\acme\\institution-list-original.js",
            "line": 13,
            "description": "Description",
            "itemtype": "method",
            "name": "init",
            "params": [
                {
                    "name": "options.institutions",
                    "description": "Array of json string that contain all institution data.",
                    "type": "String"
                }
            ],
            "return": {
                "description": "ObjectExpression"
            },
            "class": "institutionList",
            "module": "Acme"
        },
        {
            "file": "src\\js\\modules\\institution-ajax-module\\acme\\institution-list-original.js",
            "line": 54,
            "description": "Description",
            "itemtype": "method",
            "name": "generateList",
            "return": {
                "description": "ul"
            },
            "class": "institutionList",
            "module": "Acme"
        },
        {
            "file": "src\\js\\modules\\institution-ajax-module\\acme\\institution-list-original.js",
            "line": 122,
            "description": "Description",
            "itemtype": "method",
            "name": "convertNumberToWords",
            "params": [
                {
                    "name": "amount",
                    "description": ""
                }
            ],
            "return": {
                "description": "words_string"
            },
            "class": "institutionList",
            "module": "Acme"
        },
        {
            "file": "src\\js\\modules\\institution-ajax-module\\acme\\institutionDataAccess-ajax.js",
            "line": 35,
            "description": "The getAllinstitutions performs an ajax request to the webservice and data returned is used in the callback method",
            "itemtype": "method",
            "name": "getAllinstitutions",
            "params": [
                {
                    "name": "callback",
                    "description": ""
                }
            ],
            "return": {
                "description": ""
            },
            "class": "institutionDataAccess",
            "module": "Amce"
        },
        {
            "file": "src\\js\\modules\\institution-ajax-module\\acme\\institutionDataAccess-ajax.js",
            "line": 52,
            "description": "The getAllinstitutions performs an ajax request to the webservice and data returned is used in the callback method",
            "itemtype": "method",
            "name": "getInstitutionByOPEID",
            "params": [
                {
                    "name": "OPEID",
                    "description": "OPEID if the institution",
                    "type": "String"
                },
                {
                    "name": "callback",
                    "description": ""
                }
            ],
            "return": {
                "description": ""
            },
            "class": "institutionDataAccess",
            "module": "Amce"
        },
        {
            "file": "src\\js\\modules\\institution-ajax-module\\acme\\institutionDataAccess-ajax.js",
            "line": 75,
            "description": "The getAllinstitutions performs an ajax request to the webservice and data returned is used in the callback method",
            "itemtype": "method",
            "name": "postInstitution",
            "params": [
                {
                    "name": "institution",
                    "description": "Object that describes an institution to post to the database",
                    "type": "Object"
                },
                {
                    "name": "callback",
                    "description": ""
                }
            ],
            "return": {
                "description": ""
            },
            "class": "institutionDataAccess",
            "module": "Amce"
        },
        {
            "file": "src\\js\\modules\\institution-ajax-module\\acme\\institutionDataAccess-ajax.js",
            "line": 94,
            "description": "The putInstitution performs an ajax request to the webservice and data returned is used in the callback method",
            "itemtype": "method",
            "name": "putInstitution",
            "params": [
                {
                    "name": "institution",
                    "description": "Object that describes an institution to put in the database",
                    "type": "Object"
                },
                {
                    "name": "callback",
                    "description": ""
                }
            ],
            "return": {
                "description": ""
            },
            "class": "institutionDataAccess",
            "module": "Amce"
        },
        {
            "file": "src\\js\\modules\\institution-ajax-module\\jquery.js",
            "line": 887,
            "description": "Create key-value caches of limited size",
            "return": {
                "description": "Returns the Object data after storing it on itself with\n\tproperty name the (space-suffixed) string and (if the cache is larger than Expr.cacheLength)\n\tdeleting the oldest entry",
                "type": "Function(string, object)"
            },
            "class": "",
            "module": "Amce"
        },
        {
            "file": "src\\js\\modules\\institution-ajax-module\\jquery.js",
            "line": 907,
            "description": "Mark a function for special use by Sizzle",
            "params": [
                {
                    "name": "fn",
                    "description": "The function to mark",
                    "type": "Function"
                }
            ],
            "class": "",
            "module": "Amce"
        },
        {
            "file": "src\\js\\modules\\institution-ajax-module\\jquery.js",
            "line": 916,
            "description": "Support testing using an element",
            "params": [
                {
                    "name": "fn",
                    "description": "Passed the created element and returns a boolean result",
                    "type": "Function"
                }
            ],
            "class": "",
            "module": "Amce"
        },
        {
            "file": "src\\js\\modules\\institution-ajax-module\\jquery.js",
            "line": 937,
            "description": "Adds the same handler for all of the specified attrs",
            "params": [
                {
                    "name": "attrs",
                    "description": "Pipe-separated list of attributes",
                    "type": "String"
                },
                {
                    "name": "handler",
                    "description": "The method that will be applied",
                    "type": "Function"
                }
            ],
            "class": "",
            "module": "Amce"
        },
        {
            "file": "src\\js\\modules\\institution-ajax-module\\jquery.js",
            "line": 951,
            "description": "Checks document order of two siblings",
            "params": [
                {
                    "name": "a",
                    "description": "",
                    "type": "Element"
                },
                {
                    "name": "b",
                    "description": "",
                    "type": "Element"
                }
            ],
            "return": {
                "description": "Returns less than 0 if a precedes b, greater than 0 if a follows b",
                "type": "Number"
            },
            "class": "",
            "module": "Amce"
        },
        {
            "file": "src\\js\\modules\\institution-ajax-module\\jquery.js",
            "line": 979,
            "description": "Returns a function to use in pseudos for input types",
            "params": [
                {
                    "name": "type",
                    "description": "",
                    "type": "String"
                }
            ],
            "class": "",
            "module": "Amce"
        },
        {
            "file": "src\\js\\modules\\institution-ajax-module\\jquery.js",
            "line": 990,
            "description": "Returns a function to use in pseudos for buttons",
            "params": [
                {
                    "name": "type",
                    "description": "",
                    "type": "String"
                }
            ],
            "class": "",
            "module": "Amce"
        },
        {
            "file": "src\\js\\modules\\institution-ajax-module\\jquery.js",
            "line": 1001,
            "description": "Returns a function to use in pseudos for :enabled/:disabled",
            "params": [
                {
                    "name": "disabled",
                    "description": "true for :disabled; false for :enabled",
                    "type": "Boolean"
                }
            ],
            "class": "",
            "module": "Amce"
        },
        {
            "file": "src\\js\\modules\\institution-ajax-module\\jquery.js",
            "line": 1057,
            "description": "Returns a function to use in pseudos for positionals",
            "params": [
                {
                    "name": "fn",
                    "description": "",
                    "type": "Function"
                }
            ],
            "class": "",
            "module": "Amce"
        },
        {
            "file": "src\\js\\modules\\institution-ajax-module\\jquery.js",
            "line": 1079,
            "description": "Checks a node for validity as a Sizzle context",
            "params": [
                {
                    "name": "context",
                    "description": "",
                    "type": "Element|Object="
                }
            ],
            "return": {
                "description": "The input node if acceptable, otherwise a falsy value",
                "type": "Element|Object|Boolean"
            },
            "class": "",
            "module": "Amce"
        },
        {
            "file": "src\\js\\modules\\institution-ajax-module\\jquery.js",
            "line": 1091,
            "description": "Detects XML nodes",
            "params": [
                {
                    "name": "elem",
                    "description": "An element or a document",
                    "type": "Element|Object"
                }
            ],
            "return": {
                "description": "True iff elem is a non-HTML XML node",
                "type": "Boolean"
            },
            "class": "",
            "module": "Amce"
        },
        {
            "file": "src\\js\\modules\\institution-ajax-module\\jquery.js",
            "line": 1103,
            "description": "Sets document-related variables once based on the current document",
            "params": [
                {
                    "name": "doc",
                    "description": "An element or document object to use to set the document",
                    "type": "Element|Object",
                    "optional": true
                }
            ],
            "return": {
                "description": "Returns the current document",
                "type": "Object"
            },
            "class": "",
            "module": "Amce"
        },
        {
            "file": "src\\js\\modules\\institution-ajax-module\\jquery.js",
            "line": 1583,
            "description": "Document sorting and removing duplicates",
            "params": [
                {
                    "name": "results",
                    "description": "",
                    "type": "ArrayLike"
                }
            ],
            "class": "",
            "module": "Amce"
        },
        {
            "file": "src\\js\\modules\\institution-ajax-module\\jquery.js",
            "line": 1616,
            "description": "Utility function for retrieving the text value of an array of DOM nodes",
            "params": [
                {
                    "name": "elem",
                    "description": "",
                    "type": "Array|Element"
                }
            ],
            "class": "",
            "module": "Amce"
        },
        {
            "file": "src\\js\\modules\\institution-ajax-module\\jquery.js",
            "line": 2647,
            "description": "A low-level selection function that works with Sizzle's compiled\n selector functions",
            "params": [
                {
                    "name": "selector",
                    "description": "A selector or a pre-compiled\n selector function built with Sizzle.compile",
                    "type": "String|Function"
                },
                {
                    "name": "context",
                    "description": "",
                    "type": "Element"
                },
                {
                    "name": "results",
                    "description": "",
                    "type": "Array",
                    "optional": true
                },
                {
                    "name": "seed",
                    "description": "A set of elements to match against",
                    "type": "Array",
                    "optional": true
                }
            ],
            "class": "",
            "module": "Amce"
        },
        {
            "file": "src\\js\\modules\\institution-ajax-module\\jquery.js",
            "line": 9817,
            "description": "Load a url into a page",
            "class": "",
            "module": "Amce"
        },
        {
            "file": "src\\js\\main.js",
            "line": 49,
            "description": "Description",
            "itemtype": "method",
            "name": "resetSearch",
            "return": {
                "description": ""
            },
            "class": "",
            "module": "Amce"
        },
        {
            "file": "src\\js\\main.js",
            "line": 69,
            "description": "Description",
            "itemtype": "method",
            "name": "searchForDetails",
            "params": [
                {
                    "name": "e",
                    "description": ""
                }
            ],
            "return": {
                "description": ""
            },
            "class": "",
            "module": "Amce"
        },
        {
            "file": "src\\js\\main.js",
            "line": 111,
            "description": "Description",
            "itemtype": "method",
            "name": "search",
            "params": [
                {
                    "name": "nameKey",
                    "description": ""
                },
                {
                    "name": "myArray",
                    "description": ""
                }
            ],
            "return": {
                "description": ""
            },
            "class": "",
            "module": "Amce"
        }
    ],
    "warnings": [
        {
            "message": "replacing incorrect tag: returns with return",
            "line": " bower_components\\jquery\\dist\\jquery.js:887"
        },
        {
            "message": "replacing incorrect tag: returns with return",
            "line": " bower_components\\jquery\\dist\\jquery.js:951"
        },
        {
            "message": "replacing incorrect tag: returns with return",
            "line": " bower_components\\jquery\\dist\\jquery.js:1079"
        },
        {
            "message": "replacing incorrect tag: returns with return",
            "line": " bower_components\\jquery\\dist\\jquery.js:1091"
        },
        {
            "message": "replacing incorrect tag: returns with return",
            "line": " bower_components\\jquery\\dist\\jquery.js:1103"
        },
        {
            "message": "replacing incorrect tag: returns with return",
            "line": " bower_components\\jquery\\dist\\jquery.slim.js:887"
        },
        {
            "message": "replacing incorrect tag: returns with return",
            "line": " bower_components\\jquery\\dist\\jquery.slim.js:951"
        },
        {
            "message": "replacing incorrect tag: returns with return",
            "line": " bower_components\\jquery\\dist\\jquery.slim.js:1079"
        },
        {
            "message": "replacing incorrect tag: returns with return",
            "line": " bower_components\\jquery\\dist\\jquery.slim.js:1091"
        },
        {
            "message": "replacing incorrect tag: returns with return",
            "line": " bower_components\\jquery\\dist\\jquery.slim.js:1103"
        },
        {
            "message": "replacing incorrect tag: returns with return",
            "line": " bower_components\\jquery\\external\\sizzle\\dist\\sizzle.js:349"
        },
        {
            "message": "replacing incorrect tag: returns with return",
            "line": " bower_components\\jquery\\external\\sizzle\\dist\\sizzle.js:413"
        },
        {
            "message": "replacing incorrect tag: returns with return",
            "line": " bower_components\\jquery\\external\\sizzle\\dist\\sizzle.js:541"
        },
        {
            "message": "replacing incorrect tag: returns with return",
            "line": " bower_components\\jquery\\external\\sizzle\\dist\\sizzle.js:553"
        },
        {
            "message": "replacing incorrect tag: returns with return",
            "line": " bower_components\\jquery\\external\\sizzle\\dist\\sizzle.js:565"
        },
        {
            "message": "replacing incorrect tag: returns with return",
            "line": " src\\js\\modules\\institution-ajax-module\\jquery.js:887"
        },
        {
            "message": "replacing incorrect tag: returns with return",
            "line": " src\\js\\modules\\institution-ajax-module\\jquery.js:951"
        },
        {
            "message": "replacing incorrect tag: returns with return",
            "line": " src\\js\\modules\\institution-ajax-module\\jquery.js:1079"
        },
        {
            "message": "replacing incorrect tag: returns with return",
            "line": " src\\js\\modules\\institution-ajax-module\\jquery.js:1091"
        },
        {
            "message": "replacing incorrect tag: returns with return",
            "line": " src\\js\\modules\\institution-ajax-module\\jquery.js:1103"
        },
        {
            "message": "Missing item type\nCreate key-value caches of limited size",
            "line": " bower_components\\jquery\\dist\\jquery.js:887"
        },
        {
            "message": "Missing item type\nMark a function for special use by Sizzle",
            "line": " bower_components\\jquery\\dist\\jquery.js:907"
        },
        {
            "message": "Missing item type\nSupport testing using an element",
            "line": " bower_components\\jquery\\dist\\jquery.js:916"
        },
        {
            "message": "Missing item type\nAdds the same handler for all of the specified attrs",
            "line": " bower_components\\jquery\\dist\\jquery.js:937"
        },
        {
            "message": "Missing item type\nChecks document order of two siblings",
            "line": " bower_components\\jquery\\dist\\jquery.js:951"
        },
        {
            "message": "Missing item type\nReturns a function to use in pseudos for input types",
            "line": " bower_components\\jquery\\dist\\jquery.js:979"
        },
        {
            "message": "Missing item type\nReturns a function to use in pseudos for buttons",
            "line": " bower_components\\jquery\\dist\\jquery.js:990"
        },
        {
            "message": "Missing item type\nReturns a function to use in pseudos for :enabled/:disabled",
            "line": " bower_components\\jquery\\dist\\jquery.js:1001"
        },
        {
            "message": "Missing item type\nReturns a function to use in pseudos for positionals",
            "line": " bower_components\\jquery\\dist\\jquery.js:1057"
        },
        {
            "message": "Missing item type\nChecks a node for validity as a Sizzle context",
            "line": " bower_components\\jquery\\dist\\jquery.js:1079"
        },
        {
            "message": "Missing item type\nDetects XML nodes",
            "line": " bower_components\\jquery\\dist\\jquery.js:1091"
        },
        {
            "message": "Missing item type\nSets document-related variables once based on the current document",
            "line": " bower_components\\jquery\\dist\\jquery.js:1103"
        },
        {
            "message": "Missing item type\nDocument sorting and removing duplicates",
            "line": " bower_components\\jquery\\dist\\jquery.js:1583"
        },
        {
            "message": "Missing item type\nUtility function for retrieving the text value of an array of DOM nodes",
            "line": " bower_components\\jquery\\dist\\jquery.js:1616"
        },
        {
            "message": "Missing item type\nA low-level selection function that works with Sizzle's compiled\n selector functions",
            "line": " bower_components\\jquery\\dist\\jquery.js:2647"
        },
        {
            "message": "Missing item type\nLoad a url into a page",
            "line": " bower_components\\jquery\\dist\\jquery.js:9817"
        },
        {
            "message": "Missing item type\nCreate key-value caches of limited size",
            "line": " bower_components\\jquery\\dist\\jquery.slim.js:887"
        },
        {
            "message": "Missing item type\nMark a function for special use by Sizzle",
            "line": " bower_components\\jquery\\dist\\jquery.slim.js:907"
        },
        {
            "message": "Missing item type\nSupport testing using an element",
            "line": " bower_components\\jquery\\dist\\jquery.slim.js:916"
        },
        {
            "message": "Missing item type\nAdds the same handler for all of the specified attrs",
            "line": " bower_components\\jquery\\dist\\jquery.slim.js:937"
        },
        {
            "message": "Missing item type\nChecks document order of two siblings",
            "line": " bower_components\\jquery\\dist\\jquery.slim.js:951"
        },
        {
            "message": "Missing item type\nReturns a function to use in pseudos for input types",
            "line": " bower_components\\jquery\\dist\\jquery.slim.js:979"
        },
        {
            "message": "Missing item type\nReturns a function to use in pseudos for buttons",
            "line": " bower_components\\jquery\\dist\\jquery.slim.js:990"
        },
        {
            "message": "Missing item type\nReturns a function to use in pseudos for :enabled/:disabled",
            "line": " bower_components\\jquery\\dist\\jquery.slim.js:1001"
        },
        {
            "message": "Missing item type\nReturns a function to use in pseudos for positionals",
            "line": " bower_components\\jquery\\dist\\jquery.slim.js:1057"
        },
        {
            "message": "Missing item type\nChecks a node for validity as a Sizzle context",
            "line": " bower_components\\jquery\\dist\\jquery.slim.js:1079"
        },
        {
            "message": "Missing item type\nDetects XML nodes",
            "line": " bower_components\\jquery\\dist\\jquery.slim.js:1091"
        },
        {
            "message": "Missing item type\nSets document-related variables once based on the current document",
            "line": " bower_components\\jquery\\dist\\jquery.slim.js:1103"
        },
        {
            "message": "Missing item type\nDocument sorting and removing duplicates",
            "line": " bower_components\\jquery\\dist\\jquery.slim.js:1583"
        },
        {
            "message": "Missing item type\nUtility function for retrieving the text value of an array of DOM nodes",
            "line": " bower_components\\jquery\\dist\\jquery.slim.js:1616"
        },
        {
            "message": "Missing item type\nA low-level selection function that works with Sizzle's compiled\n selector functions",
            "line": " bower_components\\jquery\\dist\\jquery.slim.js:2647"
        },
        {
            "message": "Missing item type\nCreate key-value caches of limited size",
            "line": " bower_components\\jquery\\external\\sizzle\\dist\\sizzle.js:349"
        },
        {
            "message": "Missing item type\nMark a function for special use by Sizzle",
            "line": " bower_components\\jquery\\external\\sizzle\\dist\\sizzle.js:369"
        },
        {
            "message": "Missing item type\nSupport testing using an element",
            "line": " bower_components\\jquery\\external\\sizzle\\dist\\sizzle.js:378"
        },
        {
            "message": "Missing item type\nAdds the same handler for all of the specified attrs",
            "line": " bower_components\\jquery\\external\\sizzle\\dist\\sizzle.js:399"
        },
        {
            "message": "Missing item type\nChecks document order of two siblings",
            "line": " bower_components\\jquery\\external\\sizzle\\dist\\sizzle.js:413"
        },
        {
            "message": "Missing item type\nReturns a function to use in pseudos for input types",
            "line": " bower_components\\jquery\\external\\sizzle\\dist\\sizzle.js:441"
        },
        {
            "message": "Missing item type\nReturns a function to use in pseudos for buttons",
            "line": " bower_components\\jquery\\external\\sizzle\\dist\\sizzle.js:452"
        },
        {
            "message": "Missing item type\nReturns a function to use in pseudos for :enabled/:disabled",
            "line": " bower_components\\jquery\\external\\sizzle\\dist\\sizzle.js:463"
        },
        {
            "message": "Missing item type\nReturns a function to use in pseudos for positionals",
            "line": " bower_components\\jquery\\external\\sizzle\\dist\\sizzle.js:519"
        },
        {
            "message": "Missing item type\nChecks a node for validity as a Sizzle context",
            "line": " bower_components\\jquery\\external\\sizzle\\dist\\sizzle.js:541"
        },
        {
            "message": "Missing item type\nDetects XML nodes",
            "line": " bower_components\\jquery\\external\\sizzle\\dist\\sizzle.js:553"
        },
        {
            "message": "Missing item type\nSets document-related variables once based on the current document",
            "line": " bower_components\\jquery\\external\\sizzle\\dist\\sizzle.js:565"
        },
        {
            "message": "Missing item type\nDocument sorting and removing duplicates",
            "line": " bower_components\\jquery\\external\\sizzle\\dist\\sizzle.js:1045"
        },
        {
            "message": "Missing item type\nUtility function for retrieving the text value of an array of DOM nodes",
            "line": " bower_components\\jquery\\external\\sizzle\\dist\\sizzle.js:1078"
        },
        {
            "message": "Missing item type\nA low-level selection function that works with Sizzle's compiled\n selector functions",
            "line": " bower_components\\jquery\\external\\sizzle\\dist\\sizzle.js:2109"
        },
        {
            "message": "Missing item type\nLoad a url into a page",
            "line": " bower_components\\jquery\\src\\ajax\\load.js:13"
        },
        {
            "message": "Missing item type\nThe ready event handler and self cleanup method",
            "line": " bower_components\\jquery\\src\\core\\ready-no-deferred.js:68"
        },
        {
            "message": "Missing item type\nDetermines whether an object can have data",
            "line": " bower_components\\jquery\\src\\data\\var\\acceptData.js:5"
        },
        {
            "message": "Missing item type",
            "line": " src\\js\\modules\\institution-ajax-module\\acme\\institution-details.js:9"
        },
        {
            "message": "Missing item type",
            "line": " src\\js\\modules\\institution-ajax-module\\acme\\institution-list-original.js:7"
        },
        {
            "message": "Missing item type\nCreate key-value caches of limited size",
            "line": " src\\js\\modules\\institution-ajax-module\\jquery.js:887"
        },
        {
            "message": "Missing item type\nMark a function for special use by Sizzle",
            "line": " src\\js\\modules\\institution-ajax-module\\jquery.js:907"
        },
        {
            "message": "Missing item type\nSupport testing using an element",
            "line": " src\\js\\modules\\institution-ajax-module\\jquery.js:916"
        },
        {
            "message": "Missing item type\nAdds the same handler for all of the specified attrs",
            "line": " src\\js\\modules\\institution-ajax-module\\jquery.js:937"
        },
        {
            "message": "Missing item type\nChecks document order of two siblings",
            "line": " src\\js\\modules\\institution-ajax-module\\jquery.js:951"
        },
        {
            "message": "Missing item type\nReturns a function to use in pseudos for input types",
            "line": " src\\js\\modules\\institution-ajax-module\\jquery.js:979"
        },
        {
            "message": "Missing item type\nReturns a function to use in pseudos for buttons",
            "line": " src\\js\\modules\\institution-ajax-module\\jquery.js:990"
        },
        {
            "message": "Missing item type\nReturns a function to use in pseudos for :enabled/:disabled",
            "line": " src\\js\\modules\\institution-ajax-module\\jquery.js:1001"
        },
        {
            "message": "Missing item type\nReturns a function to use in pseudos for positionals",
            "line": " src\\js\\modules\\institution-ajax-module\\jquery.js:1057"
        },
        {
            "message": "Missing item type\nChecks a node for validity as a Sizzle context",
            "line": " src\\js\\modules\\institution-ajax-module\\jquery.js:1079"
        },
        {
            "message": "Missing item type\nDetects XML nodes",
            "line": " src\\js\\modules\\institution-ajax-module\\jquery.js:1091"
        },
        {
            "message": "Missing item type\nSets document-related variables once based on the current document",
            "line": " src\\js\\modules\\institution-ajax-module\\jquery.js:1103"
        },
        {
            "message": "Missing item type\nDocument sorting and removing duplicates",
            "line": " src\\js\\modules\\institution-ajax-module\\jquery.js:1583"
        },
        {
            "message": "Missing item type\nUtility function for retrieving the text value of an array of DOM nodes",
            "line": " src\\js\\modules\\institution-ajax-module\\jquery.js:1616"
        },
        {
            "message": "Missing item type\nA low-level selection function that works with Sizzle's compiled\n selector functions",
            "line": " src\\js\\modules\\institution-ajax-module\\jquery.js:2647"
        },
        {
            "message": "Missing item type\nLoad a url into a page",
            "line": " src\\js\\modules\\institution-ajax-module\\jquery.js:9817"
        }
    ]
}